sample_id	subgroup	replicate	cell	time
ESCMSC_EXP1_D0	EM0.0	1	EM	0
ESCMSC_EXP2_D0	EM0.0	2	EM	0
ESCMSC_EXP3_D0	EM0.0	3	EM	0
ESCMSC_EXP1_D0_8h	EM0.8	1	EM	0.8
ESCMSC_EXP2_D0_8h	EM0.8	2	EM	0.8
ESCMSC_EXP3_D0_8h	EM0.8	3	EM	0.8
ESCMSC_EXP1_D1	EM01	1	EM	1
ESCMSC_EXP2_D1	EM01	2	EM	1
ESCMSC_EXP3_D1	EM01	3	EM	1
ESCMSC_EXP1_D2	EM02	1	EM	2
ESCMSC_EXP2_D2	EM02	2	EM	2
ESCMSC_EXP3_D2	EM02	3	EM	2
ESCMSC_EXP1_D5	EM05	1	EM	5
ESCMSC_EXP2_D5	EM05	2	EM	5
ESCMSC_EXP3_D5	EM05	3	EM	5
ESCMSC_EXP1_D15	EM15	1	EM	15
ESCMSC_EXP2_D15	EM15	2	EM	15
ESCMSC_EXP3_D15	EM15	3	EM	15
ESCMSC_EXP1_D30	EM30	1	EM	30
ESCMSC_EXP2_D30	EM30	2	EM	30
ESCMSC_EXP3_D30	EM30	3	EM	30
ESCMSC_EXP1_BM	BM0.0	1	BM	0
ESCMSC_EXP2_BM	BM0.0	2	BM	0
ESCMSC_EXP3_BM	BM0.0	3	BM	0